algo,threshold,percentage-allocation,improvement,mean,mean_base,best,best_base
fcfs,50,0.1,-48.7062416159331,18.488768025920812,41.236092618138734,8.290269545812732,9.036898374782059
fcfs,50,0.2,-39.52272792075765,13.846637029150829,25.35388949132199,3.4806254912812635,3.1235475950103306
fcfs,50,0.05,-39.51405278370371,31.762198082876278,56.36937366550314,11.78526785815059,13.363724102128845
fcfs,100,0.1,-30.051360119013363,28.75732580435412,41.236092618138734,6.34963556070676,9.036898374782059
fcfs,100,0.05,-26.361895664438666,42.97686798792025,56.36937366550314,7.675854373516499,13.363724102128845
fcfs,25,0.2,-25.73054778705357,12.75044841867637,25.35388949132199,7.614837298668662,3.1235475950103306
fcfs,25,0.3,-17.52441007360622,7.626327113276586,14.774396192903088,3.8424643999113695,2.0836108408071015
fcfs,50,0.025,-16.388002274936696,54.37323380269984,64.1069284633156,18.84747415402736,16.241116374955958
fcfs,100,0.025,-11.290447491913552,58.37954177974894,64.1069284633156,18.31201142762003,16.241116374955958
fcfs,25,0.1,-4.322431484859226,31.05452598948636,41.236092618138734,18.342652885031814,9.036898374782059
fcfs,100,0.2,-0.6955232486707353,26.08807020455923,25.35388949132199,2.7516521418861397,3.1235475950103306
fcfs,50,0.3,0.6049773745550577,11.474043105231722,14.774396192903088,2.163700888259118,2.0836108408071015
fcfs,25,0.05,3.727564287995251,47.34362380744653,56.36937366550314,24.271168993263412,13.363724102128845
fcfs,25,0.025,20.647473507955112,68.34885485616388,64.1069284633156,37.623183292019824,16.241116374955958
fcfs,100,0.3,109.98518504683514,24.140756964276886,14.774396192903088,2.7920062021524266,2.0836108408071015
fcfs,10,0.2,327.6532117585096,64.62180972251788,25.35388949132199,32.708340351288044,3.1235475950103306
fcfs,10,0.3,394.03988300690435,39.03550156613063,14.774396192903088,20.943177444429132,2.0836108408071015
fcfs,10,0.1,496.2221367060076,188.89929245759055,41.236092618138734,98.22129507726125,9.036898374782059
fcfs,10,0.05,554.362506802434,275.70604793869416,56.36937366550314,98.36317483658729,13.363724102128845
fcfs,10,0.025,567.7323875209865,318.8167351756541,64.1069284633156,132.62239975627156,16.241116374955958
fcfs,5,0.2,1789.1598780197248,302.76194393997605,25.35388949132199,145.30212230706962,3.1235475950103306
fcfs,5,0.3,2438.829144289414,220.01259017343443,14.774396192903088,84.87445756383758,2.0836108408071015
fcfs,5,0.1,2621.9859967434677,907.4047233242281,41.236092618138734,407.4232704475724,9.036898374782059
fcfs,5,0.05,2834.3803831919727,1349.477346720993,56.36937366550314,427.89801579989506,13.363724102128845
fcfs,5,0.025,2872.433052292223,1439.184647210839,64.1069284633156,610.2475735350378,16.241116374955958
fcfs,1,0.2,58732.31009037094,8301.566371095143,25.35388949132199,2937.1710900809417,3.1235475950103306
fcfs,1,0.1,73627.37152803817,22915.754526892866,41.236092618138734,8206.099380217398,9.036898374782059
fcfs,1,0.025,80043.77743615495,37554.70066406178,64.1069284633156,17019.299528741092,16.241116374955958
fcfs,1,0.05,80053.19426040079,34561.11000366547,56.36937366550314,9191.684941763882,13.363724102128845
fcfs,1,0.3,80098.59760292259,6449.197689846042,14.774396192903088,2544.9778949727624,2.0836108408071015
