algo,threshold,percentage-allocation,mean,mean_base,improvement,best,worste
easy,25,0.2,2.7877679232739276,3.119788425730587,-30.285718855311927,1.623856590726611,4.330618012817367
easy,25,0.3,2.2108952353823352,2.091913471026127,-24.437301040780213,1.5054959463066628,3.106901030033525
easy,50,0.025,4.4818015296662805,4.7594439981538414,-19.011413212589886,2.5444199270486907,6.560236195185161
easy,50,0.2,3.0212443881852344,3.119788425730587,-18.002007357787914,1.6704394775886855,4.437831217292574
easy,75,0.025,4.323468871129847,4.454168515282101,-12.753964045648196,2.2712367825431845,6.959423406128608
easy,10,0.3,2.364001153368426,2.055338748462537,-10.82340589171128,1.571348515065276,3.136683991894207
easy,75,0.2,3.6775895862508285,3.119788425730587,-7.1668058952038916,1.8810259621065906,5.805245610385062
easy,50,0.05,4.19452309221863,4.048612009952643,-6.86995981426691,2.113796122674822,6.697468240456531
easy,25,0.1,4.205854163361676,3.236684951583965,-5.974678161506018,2.304475796275524,6.363433939992032
easy,100,0.025,4.580263262450913,4.454168515282101,-4.471145370110571,2.2798830051226533,8.06630453996541
easy,75,0.05,4.353050144572224,4.099874283539238,-1.8583339456043717,2.104467312733425,6.876644182563866
easy,25,0.05,5.060695375970427,3.9155358577593353,-1.592304118581951,3.205128867276057,7.73430344089162
easy,10,0.2,4.818173227650016,3.119788425730587,-1.373305312877757,2.795303365903048,7.8170031168767675
easy,25,0.025,6.605013519339796,4.909567730795134,-0.9905904684373142,4.828991594961268,7.974038496718031
easy,100,0.05,4.553225413269054,4.099874283539238,-0.6099054103918762,2.1819333462325643,7.3759990255448
easy,100,0.2,3.942826650346553,3.119788425730587,0.6222120630537931,2.012901307075738,6.362243875880858
easy,50,0.1,4.363658836667802,3.236684951583965,7.336509768161683,1.941263183462421,6.947358904861686
easy,50,0.3,2.884924901410713,2.085951165520187,7.91376152436563,1.5594167770642844,4.229701883029705
easy,100,0.1,4.516539441162869,3.1547920568544194,16.590810318554826,2.1584481543154737,7.387687736132846
easy,75,0.1,4.283666662103014,3.1547920568544194,16.928396829942802,2.0799528050585203,7.019589222832988
easy,5,0.3,5.610693650919093,1.987582751814122,19.7480494657895,2.2956426231132445,9.94936561915892
easy,75,0.3,3.784211116306187,2.1301759176421027,20.793023997216217,1.7455296295186296,5.8320778804638485
easy,100,0.3,4.041133308520299,2.085951165520187,34.77341696221766,1.947554459638672,6.149990229709344
easy,10,0.1,11.367152272462237,3.236684951583965,136.15971371426903,7.424182753252108,13.81307124733976
easy,10,0.025,33.9349257425863,4.781097763487189,137.90064536743373,15.840302568006766,52.08373667521915
easy,5,0.2,16.738976383659004,3.119788425730587,141.37394116570738,10.125759502289208,27.226283509882656
easy,10,0.05,22.025853436175563,3.9155358577593353,151.0048627198198,15.684435999955038,35.0413678775014
easy,5,0.1,49.016068960298654,3.236684951583965,498.86715407294184,24.644874119904774,79.43412788720316
easy,5,0.05,105.05524477028875,3.9155358577593353,686.0658717885359,49.11856975288245,178.36897925591043
easy,5,0.025,169.2163746987934,4.781097763487189,762.4174366946223,65.61859887603066,262.04442318339204
easy,1,0.3,110.19388453989276,1.987582751814122,1942.5465915573482,53.08667924629111,178.03649154732287
easy,1,0.2,281.6422826727095,3.119788425730587,4528.010179230762,106.23881427792088,629.9454649209629
easy,1,0.1,815.2843450421075,3.236684951583965,8188.703245222342,341.03001764851956,1769.6770432965805
easy,1,0.05,1572.9595842867473,3.9155358577593353,13742.0377444427,864.9416300512593,3091.250056971636
easy,1,0.025,2693.2263914447185,4.781097763487189,19286.567569875435,1201.8498823585044,6015.627752693751
